finemappeR Tutorial • finemappeR
…
## 8,961 variants to be matched.

## 1,255 ambiguous SNPs have been removed.

## 7,600 variants have been matched; 0 were flipped and 6,374 were reversed.

## [1] "Assining SNPs to LD blocks..."
## [1] "Complete."

Check that the output is cleaned and has appropriate columns:

gwas[,c('chr','pos','beta','se','snp','pval','zscore')]

## # A tibble: 7,600 x 7
##      chr   pos     beta     se snp                       pval   zscore
##    <int> <int>    <dbl>  <dbl> <chr>                    <dbl>    <dbl>
##  1     1 13110 -0.0207  0.0323 1:13110:G:A           0.522    -0.639  
##  2     1 13116 -0.0126  0.0190 rs201725126:13116:T:G 0.508    -0.662  
##  3     1 13118 -0.0126  0.0190 rs200579949:13118:A:G 0.508    -0.662  
##  4     1 13550  0.132   0.112  1:13550:G:A           0.241     1.17   
##  5     1 14604  0.0222  0.0186 1:14604:A:G           0.233     1.19   
##  6     1 14930  0.00247 0.0141 rs75454623:14930:A:G  0.860     0.176  
##  7     1 14933 -0.0199  0.0388 rs199856693:14933:G:A 0.607    -0.514  
##  8     1 15211  0.00002 0.0162 rs78601809:15211:T:G  0.999     0.00123
##  9     1 15644  0.364   0.104  1:15644:G:A           0.000484  3.49   
## 10     1 15774  0.265   0.0935 rs374029747:15774:G:A 0.00463   2.83   
## # ... with 7,590 more rows
…
Lets add the TORUS results back onto our cleaned summary statistics. PrepareSusieData() takes a parameter called fdr_thresh which is the FDR associated with each chunk. This value is 10% by default, and chunks with FDR < 10% are removed. I set it to 1 here just to keep all chunks but you will want to lower this or just use default.

susie.df <- PrepareSusieData(sumstats = gwas, torus_pip = torus.result$snp_pip, torus_fdr = torus.fdr, fdr_thresh = 1)

We see we have a new column called torus_pip

susie.df[,c('chr','pos','beta','se','snp','pval','zscore','torus_pip')]

## # A tibble: 7,600 x 8
##      chr   pos     beta     se snp                  pval   zscore torus_pip
##    <int> <int>    <dbl>  <dbl> <chr>               <dbl>    <dbl>     <dbl>
##  1     1 13110 -0.0207  0.0323 1:13110:G:A      0.522    -0.639     2.00e-6
##  2     1 13116 -0.0126  0.0190 rs201725126:131~ 0.508    -0.662     1.51e-5
##  3     1 13118 -0.0126  0.0190 rs200579949:131~ 0.508    -0.662     1.51e-5
##  4     1 13550  0.132   0.112  1:13550:G:A      0.241     1.17      1.51e-5
##  5     1 14604  0.0222  0.0186 1:14604:A:G      0.233     1.19      1.51e-5
##  6     1 14930  0.00247 0.0141 rs75454623:1493~ 0.860     0.176     1.51e-5
##  7     1 14933 -0.0199  0.0388 rs199856693:149~ 0.607    -0.514     1.51e-5
##  8     1 15211  0.00002 0.0162 rs78601809:1521~ 0.999     0.00123   1.51e-5
##  9     1 15644  0.364   0.104  1:15644:G:A      0.000484  3.49      1.51e-5
## 10     1 15774  0.265   0.0935 rs374029747:157~ 0.00463   2.83      1.51e-5
## # ... with 7,590 more rows
…
susie_finemap_L1 <- RunFinemapping(sumstats = susie.df, bigSNP = bigSNP)

## [1] "Finemapping chunks.. 1 of 2"
## [1] "Finemapping chunks.. 2 of 2"

susie_finemap_L1 is a list of SuSiE results, one for each chunk/LD block. Usually we are just interested in the SuSiE PIP, which gives the probability of a SNP being causal. We can annotate our cleaned summary statistics with this information using merge_susie_sumstats()

gwas_finemapped <- merge_susie_sumstats(susie_results = susie_finemap_L1, sumstats = susie.df)

Lets look at the final cleaned, and finemapped summary statistics. We see we have a new column called susie_pip which is the probability of being causal. Note that we ran SuSiE with L = 1 here, meaning we assumed there is at most 1 causal variant per SNP.

gwas_finemapped[,c('chr','pos','beta','se','snp','pval','zscore','torus_pip','susie_pip')]

## # A tibble: 7,600 x 9
##      chr   pos     beta     se snp        pval   zscore torus_pip susie_pip
##    <int> <int>    <dbl>  <dbl> <chr>     <dbl>    <dbl>     <dbl>     <dbl>
##  1     1 13110 -0.0207  0.0323 1:1311~ 5.22e-1 -0.639     2.00e-6         0
##  2     1 13116 -0.0126  0.0190 rs2017~ 5.08e-1 -0.662     1.51e-5         0
##  3     1 13118 -0.0126  0.0190 rs2005~ 5.08e-1 -0.662     1.51e-5         0
##  4     1 13550  0.132   0.112  1:1355~ 2.41e-1  1.17      1.51e-5         0
##  5     1 14604  0.0222  0.0186 1:1460~ 2.33e-1  1.19      1.51e-5         0
##  6     1 14930  0.00247 0.0141 rs7545~ 8.60e-1  0.176     1.51e-5         0
##  7     1 14933 -0.0199  0.0388 rs1998~ 6.07e-1 -0.514     1.51e-5         0
##  8     1 15211  0.00002 0.0162 rs7860~ 9.99e-1  0.00123   1.51e-5         0
##  9     1 15644  0.364   0.104  1:1564~ 4.84e-4  3.49      1.51e-5         0
## 10     1 15774  0.265   0.0935 rs3740~ 4.63e-3  2.83      1.51e-5         0
## # ... with 7,590 more rows
…
